C:\Users\ABC\IdeaProjects\proga\kfu-programming-java4\XpathTest\src\main\java\ru\kpfu\itis\config\Config.java
C:\Users\ABC\IdeaProjects\proga\kfu-programming-java4\XpathTest\src\main\java\ru\kpfu\itis\Interfaces\Parser.java
C:\Users\ABC\IdeaProjects\proga\kfu-programming-java4\XpathTest\src\main\java\ru\kpfu\itis\LoaderURL.java
C:\Users\ABC\IdeaProjects\proga\kfu-programming-java4\XpathTest\src\main\java\ru\kpfu\itis\ManagerXpath.java
C:\Users\ABC\IdeaProjects\proga\kfu-programming-java4\XpathTest\src\main\java\ru\kpfu\itis\Interfaces\Manager.java
C:\Users\ABC\IdeaProjects\proga\kfu-programming-java4\XpathTest\src\main\java\ru\kpfu\itis\ElementValidator.java
C:\Users\ABC\IdeaProjects\proga\kfu-programming-java4\XpathTest\src\main\java\ru\kpfu\itis\controllers\HelloController.java
C:\Users\ABC\IdeaProjects\proga\kfu-programming-java4\XpathTest\src\main\java\ru\kpfu\itis\Interfaces\Loader.java
C:\Users\ABC\IdeaProjects\proga\kfu-programming-java4\XpathTest\src\main\java\ru\kpfu\itis\config\WebInitializer.java
C:\Users\ABC\IdeaProjects\proga\kfu-programming-java4\XpathTest\src\main\java\ru\kpfu\itis\Element.java
C:\Users\ABC\IdeaProjects\proga\kfu-programming-java4\XpathTest\src\main\java\ru\kpfu\itis\UsageXpath.java
